C:\practitionercolombia\formacion\src\main\java\net\techu\BeanPersonalizacion.java
C:\practitionercolombia\formacion\src\main\java\net\techu\ProductosV4Controller.java
C:\practitionercolombia\formacion\src\main\java\com\example\demo\DemoApplication.java
C:\practitionercolombia\formacion\src\main\java\net\techu\data\ProductoMongo.java
C:\practitionercolombia\formacion\src\main\java\net\techu\Producto.java
C:\practitionercolombia\formacion\src\main\java\net\techu\TiendaApplication.java
C:\practitionercolombia\formacion\src\main\java\net\techu\DemoswaggerApplication.java
C:\practitionercolombia\formacion\src\main\java\net\techu\ProductosController.java
C:\practitionercolombia\formacion\src\main\java\net\techu\ProductController.java
C:\practitionercolombia\formacion\src\main\java\net\techu\BeanContexto.java
C:\practitionercolombia\formacion\src\main\java\net\techu\SwaggerConfig.java
C:\practitionercolombia\formacion\src\main\java\net\techu\SaludoController.java
C:\practitionercolombia\formacion\src\main\java\net\techu\ProductosV2Controller.java
C:\practitionercolombia\formacion\src\main\java\net\techu\data\ProductoRepository.java
C:\practitionercolombia\formacion\src\main\java\net\techu\ProductosV3Controller.java
C:\practitionercolombia\formacion\src\main\java\net\techu\data\Product.java
